id,type,custodial_account_id,amount,description,date,transaction_owners_id,created_at,updated_at,deleted_at
950,1,1,55308557.88,Client: Cytonn Investments Partners Three LLP Rolled over (Investment Transaction),26/05/2015,25,27/02/2016 14:37,10/05/2016 16:46,NULL
737,2,1,-3043943.84,Client Praedium Africa Rolled over (Withdraw Transaction),05/10/2015,263,25/02/2016 21:59,10/05/2016 16:46,NULL
59,1,1,2600000,Client Prof. Daniel Mugendi Njiru Rolled over (Withdraw Transaction),08/10/2015,15,07/01/2016 21:22,10/05/2016 16:45,NULL
1060,1,2,50000,Client Mrs. Beatrice Moraa Angwenyi Topup,26/10/2015,296,28/02/2016 19:32,10/05/2016 16:46,NULL
891,2,1,-4099063.88,Client Andiwo Limited Rolled over (Withdraw Transaction),27/10/2015,73,27/02/2016 11:57,10/05/2016 16:46,NULL
118,2,1,-1373323.56,Client Ms. Bernadette Wambui Kamau Rolled over (Withdraw Transaction),01/11/2015,38,11/01/2016 21:01,10/05/2016 16:46,NULL
772,2,1,-14671,Payment made to client: Mr. Prital Dipak Nathwani,01/11/2015,281,26/02/2016 14:22,10/05/2016 16:46,NULL
874,1,1,300000,Client Tevat LLP Topup,06/11/2015,269,27/02/2016 10:38,10/05/2016 16:46,NULL
2189,3,1,-20000000,New portfolio investment to: Active Strategy,06/11/2015,1,13/04/2016 20:32,10/05/2016 16:47,NULL
275,1,1,1000000,New investment from Client: Mr. Charles Peter Mwangi Gichira,16/11/2015,139,05/02/2016 20:29,10/05/2016 16:46,NULL
924,2,1,-45012,Payment made to client: Ms. Lydia Opiyo Awuor,26/11/2015,108,27/02/2016 13:14,10/05/2016 16:46,NULL
