<svg xmlns="http://www.w3.org/2000/svg" xmlns:xlink="http://www.w3.org/1999/xlink" width="105" height="20" viewBox="0 0 75 20">
<defs>
<path id="7o33a" d="M79.75 23.8v.3c0 4.84-3.9 8.76-8.7 8.76a8.66 8.66 0 0 1-6.63-3.08 7.6 7.6 0 0 1-4.31-1.85c.94 4.59 4.98 8.05 9.82 8.05a10.06 10.06 0 0 0 9.82-12.18"/>
<path id="7o33b" d="M66.24 16.5A10.1 10.1 0 0 0 60 24.51a5.7 5.7 0 0 0 2.98 2.86 8.77 8.77 0 0 1 4.58-11.31c-.46.11-.9.25-1.32.42"/>
<path id="7o33c" d="M71.12 17.27a6.83 6.83 0 0 0-6.81 6.86 6.83 6.83 0 0 0 6.81 6.86 6.83 6.83 0 0 0 6.81-6.86 6.83 6.83 0 0 0-6.81-6.86"/>
</defs>
<g>
<g transform="translate(-60 -16)"><g>
<g fill="#006b5b" font-family="'Roboto','Roboto-Bold'" font-size="14">
<text dominant-baseline="text-before-edge" font-family="Helvetica, Arial, sans-serif" transform="translate(86 18)">
<tspan letter-spacing=".2">CRIMS</tspan>
</text>
</g></g><g><g>
<use fill="#a3cf5f" xlink:href="#7o33a"/></g>
<g><use fill="#a3cf5f" xlink:href="#7o33b"/></g><g>
<use fill="#006b5b" xlink:href="#7o33c"/></g></g>
</g></g>
</svg>